Exploratory Data Analysis of The UN Vote
…
# Start with by_year_country dataset
by_year_country <- votes_processed %>%
  group_by(year, country) %>%
  summarize(total = n(),
            percent_yes = mean(vote == 1))

# Print by_year_country
by_year_country

## Source: local data frame [9,618 x 4]
## Groups: year [?]
## 
##     year                          country total percent_yes
##    <dbl>                            <chr> <int>       <dbl>
## 1   1946                      Afghanistan    17   0.4117647
## 2   1946                        Argentina    43   0.6976744
## 3   1946                        Australia    43   0.5581395
## 4   1946                          Belarus    43   0.4418605
## 5   1946                          Belgium    43   0.6046512
## 6   1946 Bolivia (Plurinational State of)    43   0.6976744
## 7   1946                           Brazil    43   0.6046512
## 8   1946                           Canada    42   0.6428571
## 9   1946                            Chile    43   0.6046512
## 10  1946                         Colombia    42   0.3095238
## # ... with 9,608 more rows
…
# Percentage of yes votes from the US by year: US_by_year
US_by_year <- by_year_country %>%
  filter(country == "United States of America")

# Print the US_by_year data
US_by_year

## Source: local data frame [69 x 4]
## Groups: year [69]
## 
##     year                  country total percent_yes
##    <dbl>                    <chr> <int>       <dbl>
## 1   1946 United States of America    43   0.6046512
## 2   1947 United States of America    38   0.7105263
## 3   1948 United States of America   104   0.4519231
## 4   1949 United States of America    64   0.2812500
## 5   1950 United States of America    53   0.4905660
## 6   1951 United States of America    25   0.4000000
## 7   1952 United States of America    49   0.5102041
## 8   1953 United States of America    26   0.5000000
## 9   1954 United States of America    31   0.6129032
## 10  1955 United States of America    37   0.6216216
## # ... with 59 more rows
…
